^C:\USERS\NATAN\DESKTOP\SKUUL\1_YEAR\REA1121 MATTE FOR PROGRAMMERING\REA1121_HAND_IN_5\A_STAR\A_STAR\DEBUG\SOURCE.OBJ
C:\WINDOWS\GLOBALIZATION\SORTING\SORTDEFAULT.NLS
C:\USERS\NATAN\ONEDRIVE\DOCUMENTS\SFML-2.4.2-WINDOWS-VC14-32-BIT\SFML-2.4.2\LIB\SFML-GRAPHICS-D.LIB
C:\USERS\NATAN\ONEDRIVE\DOCUMENTS\SFML-2.4.2-WINDOWS-VC14-32-BIT\SFML-2.4.2\LIB\SFML-GRAPHICS-S-D.LIB
C:\USERS\NATAN\ONEDRIVE\DOCUMENTS\SFML-2.4.2-WINDOWS-VC14-32-BIT\SFML-2.4.2\LIB\SFML-WINDOW-D.LIB
C:\USERS\NATAN\ONEDRIVE\DOCUMENTS\SFML-2.4.2-WINDOWS-VC14-32-BIT\SFML-2.4.2\LIB\SFML-WINDOW-S-D.LIB
C:\USERS\NATAN\ONEDRIVE\DOCUMENTS\SFML-2.4.2-WINDOWS-VC14-32-BIT\SFML-2.4.2\LIB\SFML-SYSTEM-D.LIB
C:\USERS\NATAN\ONEDRIVE\DOCUMENTS\SFML-2.4.2-WINDOWS-VC14-32-BIT\SFML-2.4.2\LIB\SFML-SYSTEM-S-D.LIB
C:\PROGRAM FILES (X86)\WINDOWS KITS\8.1\LIB\WINV6.3\UM\X86\KERNEL32.LIB
C:\PROGRAM FILES (X86)\WINDOWS KITS\8.1\LIB\WINV6.3\UM\X86\USER32.LIB
C:\PROGRAM FILES (X86)\WINDOWS KITS\8.1\LIB\WINV6.3\UM\X86\GDI32.LIB
C:\PROGRAM FILES (X86)\WINDOWS KITS\8.1\LIB\WINV6.3\UM\X86\WINSPOOL.LIB
C:\PROGRAM FILES (X86)\WINDOWS KITS\8.1\LIB\WINV6.3\UM\X86\COMDLG32.LIB
C:\PROGRAM FILES (X86)\WINDOWS KITS\8.1\LIB\WINV6.3\UM\X86\ADVAPI32.LIB
C:\PROGRAM FILES (X86)\WINDOWS KITS\8.1\LIB\WINV6.3\UM\X86\SHELL32.LIB
C:\PROGRAM FILES (X86)\WINDOWS KITS\8.1\LIB\WINV6.3\UM\X86\OLE32.LIB
C:\PROGRAM FILES (X86)\WINDOWS KITS\8.1\LIB\WINV6.3\UM\X86\OLEAUT32.LIB
C:\PROGRAM FILES (X86)\WINDOWS KITS\8.1\LIB\WINV6.3\UM\X86\UUID.LIB
C:\PROGRAM FILES (X86)\WINDOWS KITS\8.1\LIB\WINV6.3\UM\X86\ODBC32.LIB
C:\PROGRAM FILES (X86)\WINDOWS KITS\8.1\LIB\WINV6.3\UM\X86\ODBCCP32.LIB
C:\USERS\NATAN\DESKTOP\SKUUL\1_YEAR\REA1121 MATTE FOR PROGRAMMERING\REA1121_HAND_IN_5\A_STAR\A_STAR\DEBUG\SOURCE.OBJ
C:\PROGRAM FILES (X86)\MICROSOFT VISUAL STUDIO 14.0\VC\LIB\MSVCPRTD.LIB
C:\PROGRAM FILES (X86)\MICROSOFT VISUAL STUDIO 14.0\VC\LIB\MSVCRTD.LIB
C:\PROGRAM FILES (X86)\MICROSOFT VISUAL STUDIO 14.0\VC\LIB\OLDNAMES.LIB
C:\PROGRAM FILES (X86)\MICROSOFT VISUAL STUDIO 14.0\VC\LIB\VCRUNTIMED.LIB
C:\PROGRAM FILES (X86)\WINDOWS KITS\10\LIB\10.0.10240.0\UCRT\X86\UCRTD.LIB
C:\PROGRAM FILES (X86)\WINDOWS KITS\8.1\BIN\X86\RC.EXE
C:\PROGRAM FILES (X86)\MICROSOFT VISUAL STUDIO 14.0\VC\BIN\CVTRES.EXE
C:\WINDOWS\SYSTEM32\TZRES.DLL
